{
  "nodeFoldStates": [
    "10nkFQfmtMurGZOVxK9E/J",
    "8cbT05BdFJWqrtFHqPOWl8",
    "05LtH63HdGGYu42P1fs47j",
    "df36bpfLxAA4ORY5yLTy/b",
    "b6DRlnoEtHWaqU4mNy5oFr",
    "32jh1lpxlMarqX1LSaofrn",
    "99mdjhK0hMcYx2EAYipHCJ",
    "a5Yld9SndHGrSAgWYeQlIv",
    "3cvaHd+SFNcJux8T9OciRi",
    "b5xOBypwtECYrS6uBm/X8i",
    "ceqCkhTWRFEKP4y/C3w7Cb",
    "c54Xc1NAFMVLpHPFfpo+Tr",
    "8cGlQEaxZIn44xdjxC/W0d",
    "05KrFT+c1OBJYzIVtROUrR",
    "d0PcWBAodLZYPMnjM9okHe",
    "b3Hwvxkr1A/qUmlAoXzx0l",
    "027Tq1ZzlHM6ivDexRlcoR",
    "05jGTkoB5FP5HlhKw9g3iq",
    "5eBzyRna9MwLti6nlY4Cyp"
  ]
}
